[2022-01-26T06:49:32.250-0500][gc,heap] Heap region size: 1M
[2022-01-26T06:49:32.257-0500][gc     ] Using G1
[2022-01-26T06:49:32.257-0500][gc,heap,coops] Heap address: 0x00000000c0000000, size: 1024 MB, Compressed Oops mode: 32-bit
[2022-01-26T06:49:34.188-0500][gc,start     ] GC(0) Pause Young (Normal) (G1 Evacuation Pause)
[2022-01-26T06:49:34.188-0500][gc,task      ] GC(0) Using 1 workers of 1 for evacuation
[2022-01-26T06:49:34.208-0500][gc,phases    ] GC(0)   Pre Evacuate Collection Set: 0.0ms
[2022-01-26T06:49:34.208-0500][gc,phases    ] GC(0)   Evacuate Collection Set: 19.3ms
[2022-01-26T06:49:34.208-0500][gc,phases    ] GC(0)   Post Evacuate Collection Set: 0.3ms
[2022-01-26T06:49:34.208-0500][gc,phases    ] GC(0)   Other: 0.2ms
[2022-01-26T06:49:34.208-0500][gc,heap      ] GC(0) Eden regions: 51->0(44)
[2022-01-26T06:49:34.208-0500][gc,heap      ] GC(0) Survivor regions: 0->7(7)
[2022-01-26T06:49:34.208-0500][gc,heap      ] GC(0) Old regions: 0->0
[2022-01-26T06:49:34.208-0500][gc,heap      ] GC(0) Humongous regions: 0->0
[2022-01-26T06:49:34.208-0500][gc,metaspace ] GC(0) Metaspace: 14814K->14814K(1062912K)
[2022-01-26T06:49:34.208-0500][gc           ] GC(0) Pause Young (Normal) (G1 Evacuation Pause) 51M->6M(1024M) 20.027ms
[2022-01-26T06:49:34.208-0500][gc,cpu       ] GC(0) User=0.01s Sys=0.00s Real=0.01s
[2022-01-26T06:49:34.976-0500][gc,start     ] GC(1) Pause Young (Concurrent Start) (Metadata GC Threshold)
[2022-01-26T06:49:34.976-0500][gc,task      ] GC(1) Using 1 workers of 1 for evacuation
[2022-01-26T06:49:34.996-0500][gc,phases    ] GC(1)   Pre Evacuate Collection Set: 0.1ms
[2022-01-26T06:49:34.996-0500][gc,phases    ] GC(1)   Evacuate Collection Set: 19.5ms
[2022-01-26T06:49:34.996-0500][gc,phases    ] GC(1)   Post Evacuate Collection Set: 0.2ms
[2022-01-26T06:49:34.996-0500][gc,phases    ] GC(1)   Other: 0.2ms
[2022-01-26T06:49:34.996-0500][gc,heap      ] GC(1) Eden regions: 25->0(50)
[2022-01-26T06:49:34.996-0500][gc,heap      ] GC(1) Survivor regions: 7->1(7)
[2022-01-26T06:49:34.996-0500][gc,heap      ] GC(1) Old regions: 0->7
[2022-01-26T06:49:34.996-0500][gc,heap      ] GC(1) Humongous regions: 0->0
[2022-01-26T06:49:34.996-0500][gc,metaspace ] GC(1) Metaspace: 20667K->20667K(1067008K)
[2022-01-26T06:49:34.996-0500][gc           ] GC(1) Pause Young (Concurrent Start) (Metadata GC Threshold) 31M->7M(1024M) 20.011ms
[2022-01-26T06:49:34.996-0500][gc,cpu       ] GC(1) User=0.00s Sys=0.02s Real=0.02s
[2022-01-26T06:49:34.997-0500][gc           ] GC(2) Concurrent Cycle
[2022-01-26T06:49:34.997-0500][gc,marking   ] GC(2) Concurrent Clear Claimed Marks
[2022-01-26T06:49:34.997-0500][gc,marking   ] GC(2) Concurrent Clear Claimed Marks 0.048ms
[2022-01-26T06:49:34.997-0500][gc,marking   ] GC(2) Concurrent Scan Root Regions
[2022-01-26T06:49:35.000-0500][gc,marking   ] GC(2) Concurrent Scan Root Regions 2.819ms
[2022-01-26T06:49:35.000-0500][gc,marking   ] GC(2) Concurrent Mark (2.756s)
[2022-01-26T06:49:35.000-0500][gc,marking   ] GC(2) Concurrent Mark From Roots
[2022-01-26T06:49:35.000-0500][gc,task      ] GC(2) Using 1 workers of 1 for marking
[2022-01-26T06:49:35.032-0500][gc,marking   ] GC(2) Concurrent Mark From Roots 32.554ms
[2022-01-26T06:49:35.032-0500][gc,marking   ] GC(2) Concurrent Preclean
[2022-01-26T06:49:35.032-0500][gc,marking   ] GC(2) Concurrent Preclean 0.049ms
[2022-01-26T06:49:35.032-0500][gc,marking   ] GC(2) Concurrent Mark (2.756s, 2.789s) 32.666ms
[2022-01-26T06:49:35.037-0500][gc,start     ] GC(2) Pause Remark
[2022-01-26T06:49:35.041-0500][gc,stringtable] GC(2) Cleaned string and symbol table, strings: 9008 processed, 0 removed, symbols: 51213 processed, 46 removed
[2022-01-26T06:49:35.041-0500][gc            ] GC(2) Pause Remark 8M->8M(1024M) 3.754ms
[2022-01-26T06:49:35.041-0500][gc,cpu        ] GC(2) User=0.00s Sys=0.01s Real=0.00s
[2022-01-26T06:49:35.041-0500][gc,marking    ] GC(2) Concurrent Rebuild Remembered Sets
[2022-01-26T06:49:35.064-0500][gc,marking    ] GC(2) Concurrent Rebuild Remembered Sets 22.292ms
[2022-01-26T06:49:35.064-0500][gc,start      ] GC(2) Pause Cleanup
[2022-01-26T06:49:35.064-0500][gc            ] GC(2) Pause Cleanup 10M->10M(1024M) 0.203ms
[2022-01-26T06:49:35.064-0500][gc,cpu        ] GC(2) User=0.00s Sys=0.00s Real=0.00s
[2022-01-26T06:49:35.064-0500][gc,marking    ] GC(2) Concurrent Cleanup for Next Mark
[2022-01-26T06:49:35.088-0500][gc,marking    ] GC(2) Concurrent Cleanup for Next Mark 23.437ms
[2022-01-26T06:49:35.088-0500][gc            ] GC(2) Concurrent Cycle 90.853ms
[2022-01-26T06:49:36.725-0500][gc,start      ] GC(3) Pause Young (Normal) (G1 Evacuation Pause)
[2022-01-26T06:49:36.725-0500][gc,task       ] GC(3) Using 1 workers of 1 for evacuation
[2022-01-26T06:49:36.739-0500][gc,phases     ] GC(3)   Pre Evacuate Collection Set: 0.0ms
[2022-01-26T06:49:36.739-0500][gc,phases     ] GC(3)   Evacuate Collection Set: 13.1ms
[2022-01-26T06:49:36.739-0500][gc,phases     ] GC(3)   Post Evacuate Collection Set: 0.2ms
[2022-01-26T06:49:36.739-0500][gc,phases     ] GC(3)   Other: 0.1ms
[2022-01-26T06:49:36.739-0500][gc,heap       ] GC(3) Eden regions: 50->0(46)
[2022-01-26T06:49:36.739-0500][gc,heap       ] GC(3) Survivor regions: 1->5(7)
[2022-01-26T06:49:36.739-0500][gc,heap       ] GC(3) Old regions: 7->7
[2022-01-26T06:49:36.739-0500][gc,heap       ] GC(3) Humongous regions: 129->129
[2022-01-26T06:49:36.739-0500][gc,metaspace  ] GC(3) Metaspace: 29206K->29206K(1075200K)
[2022-01-26T06:49:36.739-0500][gc            ] GC(3) Pause Young (Normal) (G1 Evacuation Pause) 186M->140M(1024M) 13.946ms
[2022-01-26T06:49:36.739-0500][gc,cpu        ] GC(3) User=0.00s Sys=0.01s Real=0.02s
[2022-01-26T06:49:37.603-0500][gc,start      ] GC(4) Pause Young (Concurrent Start) (Metadata GC Threshold)
[2022-01-26T06:49:37.603-0500][gc,task       ] GC(4) Using 1 workers of 1 for evacuation
[2022-01-26T06:49:37.648-0500][gc,mmu        ] GC(4) MMU target violated: 21.0ms (20.0ms/21.0ms)
[2022-01-26T06:49:37.648-0500][gc,phases     ] GC(4)   Pre Evacuate Collection Set: 0.1ms
[2022-01-26T06:49:37.648-0500][gc,phases     ] GC(4)   Evacuate Collection Set: 44.3ms
[2022-01-26T06:49:37.648-0500][gc,phases     ] GC(4)   Post Evacuate Collection Set: 0.3ms
[2022-01-26T06:49:37.648-0500][gc,phases     ] GC(4)   Other: 0.2ms
[2022-01-26T06:49:37.648-0500][gc,heap       ] GC(4) Eden regions: 26->0(49)
[2022-01-26T06:49:37.648-0500][gc,heap       ] GC(4) Survivor regions: 5->2(7)
[2022-01-26T06:49:37.648-0500][gc,heap       ] GC(4) Old regions: 7->12
[2022-01-26T06:49:37.648-0500][gc,heap       ] GC(4) Humongous regions: 129->129
[2022-01-26T06:49:37.648-0500][gc,metaspace  ] GC(4) Metaspace: 34469K->34469K(1081344K)
[2022-01-26T06:49:37.648-0500][gc            ] GC(4) Pause Young (Concurrent Start) (Metadata GC Threshold) 165M->141M(1024M) 44.935ms
[2022-01-26T06:49:37.648-0500][gc,cpu        ] GC(4) User=0.02s Sys=0.02s Real=0.04s
[2022-01-26T06:49:37.648-0500][gc            ] GC(5) Concurrent Cycle
[2022-01-26T06:49:37.648-0500][gc,marking    ] GC(5) Concurrent Clear Claimed Marks
[2022-01-26T06:49:37.648-0500][gc,marking    ] GC(5) Concurrent Clear Claimed Marks 0.087ms
[2022-01-26T06:49:37.648-0500][gc,marking    ] GC(5) Concurrent Scan Root Regions
[2022-01-26T06:49:37.660-0500][gc,marking    ] GC(5) Concurrent Scan Root Regions 11.843ms
[2022-01-26T06:49:37.660-0500][gc,marking    ] GC(5) Concurrent Mark (5.417s)
[2022-01-26T06:49:37.660-0500][gc,marking    ] GC(5) Concurrent Mark From Roots
[2022-01-26T06:49:37.660-0500][gc,task       ] GC(5) Using 1 workers of 1 for marking
[2022-01-26T06:49:37.690-0500][gc,marking    ] GC(5) Concurrent Mark From Roots 29.645ms
[2022-01-26T06:49:37.690-0500][gc,marking    ] GC(5) Concurrent Preclean
[2022-01-26T06:49:37.690-0500][gc,marking    ] GC(5) Concurrent Preclean 0.047ms
[2022-01-26T06:49:37.690-0500][gc,marking    ] GC(5) Concurrent Mark (5.417s, 5.446s) 29.744ms
[2022-01-26T06:49:37.690-0500][gc,start      ] GC(5) Pause Remark
[2022-01-26T06:49:37.695-0500][gc,stringtable] GC(5) Cleaned string and symbol table, strings: 14382 processed, 11 removed, symbols: 83428 processed, 14 removed
[2022-01-26T06:49:37.699-0500][gc            ] GC(5) Pause Remark 143M->143M(1024M) 9.019ms
[2022-01-26T06:49:37.699-0500][gc,cpu        ] GC(5) User=0.01s Sys=0.00s Real=0.03s
[2022-01-26T06:49:37.700-0500][gc,marking    ] GC(5) Concurrent Rebuild Remembered Sets
[2022-01-26T06:49:37.798-0500][gc,marking    ] GC(5) Concurrent Rebuild Remembered Sets 98.382ms
[2022-01-26T06:49:37.807-0500][gc,start      ] GC(5) Pause Cleanup
[2022-01-26T06:49:37.807-0500][gc            ] GC(5) Pause Cleanup 146M->146M(1024M) 0.342ms
[2022-01-26T06:49:37.807-0500][gc,cpu        ] GC(5) User=0.00s Sys=0.00s Real=0.00s
[2022-01-26T06:49:37.807-0500][gc,marking    ] GC(5) Concurrent Cleanup for Next Mark
[2022-01-26T06:49:37.972-0500][gc,marking    ] GC(5) Concurrent Cleanup for Next Mark 165.243ms
[2022-01-26T06:49:37.972-0500][gc            ] GC(5) Concurrent Cycle 324.001ms
[2022-01-26T06:53:27.380-0500][gc,heap,exit  ] Heap
[2022-01-26T06:53:27.380-0500][gc,heap,exit  ]  garbage-first heap   total 1048576K, used 163473K [0x00000000c0000000, 0x0000000100000000)
[2022-01-26T06:53:27.380-0500][gc,heap,exit  ]   region size 1024K, 22 young (22528K), 2 survivors (2048K)
[2022-01-26T06:53:27.380-0500][gc,heap,exit  ]  Metaspace       used 37034K, capacity 38668K, committed 38912K, reserved 1083392K
[2022-01-26T06:53:27.380-0500][gc,heap,exit  ]   class space    used 4546K, capacity 5324K, committed 5376K, reserved 1048576K
