[2022-01-26T06:47:52.785-0500][gc,heap] Heap region size: 1M
[2022-01-26T06:47:52.788-0500][gc     ] Using G1
[2022-01-26T06:47:52.789-0500][gc,heap,coops] Heap address: 0x00000000e0000000, size: 512 MB, Compressed Oops mode: 32-bit
[2022-01-26T06:47:54.145-0500][gc,start     ] GC(0) Pause Young (Normal) (G1 Evacuation Pause)
[2022-01-26T06:47:54.145-0500][gc,task      ] GC(0) Using 1 workers of 1 for evacuation
[2022-01-26T06:47:54.155-0500][gc,phases    ] GC(0)   Pre Evacuate Collection Set: 0.0ms
[2022-01-26T06:47:54.155-0500][gc,phases    ] GC(0)   Evacuate Collection Set: 10.4ms
[2022-01-26T06:47:54.155-0500][gc,phases    ] GC(0)   Post Evacuate Collection Set: 0.2ms
[2022-01-26T06:47:54.155-0500][gc,phases    ] GC(0)   Other: 0.1ms
[2022-01-26T06:47:54.155-0500][gc,heap      ] GC(0) Eden regions: 25->0(21)
[2022-01-26T06:47:54.155-0500][gc,heap      ] GC(0) Survivor regions: 0->4(4)
[2022-01-26T06:47:54.155-0500][gc,heap      ] GC(0) Old regions: 0->4
[2022-01-26T06:47:54.155-0500][gc,heap      ] GC(0) Humongous regions: 0->0
[2022-01-26T06:47:54.155-0500][gc,metaspace ] GC(0) Metaspace: 7579K->7579K(1056768K)
[2022-01-26T06:47:54.155-0500][gc           ] GC(0) Pause Young (Normal) (G1 Evacuation Pause) 25M->7M(512M) 10.888ms
[2022-01-26T06:47:54.155-0500][gc,cpu       ] GC(0) User=0.01s Sys=0.00s Real=0.01s
[2022-01-26T06:53:52.008-0500][gc,heap,exit ] Heap
[2022-01-26T06:53:52.008-0500][gc,heap,exit ]  garbage-first heap   total 524288K, used 15624K [0x00000000e0000000, 0x0000000100000000)
[2022-01-26T06:53:52.008-0500][gc,heap,exit ]   region size 1024K, 13 young (13312K), 4 survivors (4096K)
[2022-01-26T06:53:52.008-0500][gc,heap,exit ]  Metaspace       used 8944K, capacity 9275K, committed 9600K, reserved 1058816K
[2022-01-26T06:53:52.008-0500][gc,heap,exit ]   class space    used 978K, capacity 1121K, committed 1152K, reserved 1048576K
